OFF
319 653 0
-0.014187 0.722878 -0.058721
-0.270094 -0.038761 0.033029
-0.214712 0.126230 0.017986
0.200941 0.533560 0.018629
-0.110884 -0.371219 0.016303
-0.115241 -0.729728 0.150015
-0.093479 0.959898 -0.110004
-0.138396 -0.690410 -0.044803
0.081405 0.333523 0.031371
0.048823 -0.660880 -0.143583
-0.068522 -0.669541 0.105804
-0.127370 0.086275 -0.128320
-0.156623 0.696187 -0.057990
-0.285468 0.054126 0.059135
-0.162950 0.331277 0.019258
-0.126425 0.767051 -0.126340
-0.192731 0.797957 -0.028002
-0.141369 0.025270 -0.071124
-0.027581 -0.037081 0.024338
-0.023053 0.757976 0.036933
0.381163 -0.789852 -0.183353
-0.107443 0.900302 0.075775
-0.090262 -0.464603 -0.086379
0.123704 0.592054 0.121785
0.051045 0.057081 -0.103880
-0.157607 0.792666 -0.013245
-0.042363 -0.190802 0.045412
0.105860 -0.287735 0.131158
-0.073892 0.002224 -0.057696
0.107790 0.627166 -0.012932
-0.001267 -0.243003 -0.067798
-0.061844 0.281638 -0.091789
0.047173 0.685326 0.065954
-0.029466 -0.340216 -0.129268
0.077362 0.682517 0.062027
0.075478 0.552174 0.042452
0.277224 -0.498036 0.076606
0.110300 0.445967 -0.021885
0.023997 -0.459013 -0.095325
0.002704 0.530066 -0.161832
0.081530 0.696102 0.162681
-0.083827 0.987107 -0.060173
0.219879 -0.543561 0.081818
0.206258 -0.776201 -0.151563
0.064704 0.009303 0.134487
-0.065299 0.827934 -0.114323
-0.110875 0.162718 0.086111
-0.062411 0.911356 0.073839
-0.069063 0.930351 0.095837
-0.133814 -0.699944 0.107189
-0.013545 -0.581087 -0.150779
-0.179476 0.242246 0.056210
0.348903 -0.761614 0.169056
0.118150 -0.227747 0.208392
0.160604 0.597932 0.153578
-0.113659 0.875567 0.064434
0.113371 0.565387 0.176637
-0.027193 -0.515430 -0.138926
-0.101357 -0.665120 -0.042158
0.006067 -0.603574 0.021987
0.138893 -0.394726 0.089353
-0.157954 -0.776358 0.091124
-0.057771 0.098490 0.076307
0.161586 -0.718330 0.163954
-0.174163 0.631928 -0.018203
-0.155162 0.895914 0.067963
0.028600 -0.653552 -0.051094
-0.162282 0.959390 -0.005379
-0.107430 -0.324640 -0.096180
-0.059377 -0.284885 -0.094762
0.317728 -0.660982 0.163345
-0.113817 -0.174385 0.070358
-0.280413 0.003373 0.036060
-0.015514 -0.394192 -0.063735
-0.007836 0.909629 -0.089328
-0.111311 0.991029 -0.031760
0.094006 0.336370 -0.047756
-0.038314 0.138781 0.098388
0.010984 0.929670 0.065727
-0.012097 0.120275 -0.132233
-0.060778 0.738208 0.010690
0.364298 -0.770413 -0.042159
0.000788 0.897637 -0.024433
0.014297 -0.415986 -0.128681
0.028203 -0.520336 -0.085376
-0.048229 0.658517 -0.001761
-0.031663 0.891322 -0.085860
-0.025600 -0.776717 -0.168438
0.166825 -0.179998 0.146121
-0.059718 -0.654467 -0.040927
-0.296081 0.320819 0.012858
-0.107861 -0.614798 -0.133628
0.247109 -0.307848 0.088394
0.030202 -0.768221 0.153027
-0.007446 0.967801 0.058620
-0.141447 0.865957 0.025342
0.185297 -0.685040 0.133295
0.078121 -0.782196 -0.157390
0.330739 -0.666587 0.004494
0.198300 0.602108 -0.058972
0.077969 -0.695335 -0.170014
-0.137213 -0.738310 0.019196
-0.022194 0.953841 0.076497
-0.032889 -0.515492 0.001808
-0.284295 0.615382 -0.060744
0.061361 0.452924 -0.131149
0.036419 0.622133 0.104057
-0.209250 -0.026011 0.080323
-0.033023 0.083628 0.106194
-0.091526 -0.543012 -0.043857
-0.141465 0.721380 -0.090469
-0.146505 -0.489667 -0.123033
-0.118545 0.970068 0.033980
0.033634 0.718314 0.081316
-0.170671 0.917469 0.059666
0.287325 -0.685207 0.148375
0.009104 -0.327395 -0.099927
0.171633 -0.761012 0.161612
0.069743 -0.704674 0.158746
-0.308821 0.266027 -0.061936
0.184945 -0.331068 0.040614
-0.136439 0.295603 -0.080289
0.289909 0.470012 0.020358
-0.171290 0.825716 -0.071978
-0.050097 0.916269 -0.129571
0.002438 0.957452 -0.024223
0.026822 -0.682281 0.094200
-0.013936 -0.378074 -0.023738
-0.312191 0.047554 0.095085
-0.111567 0.947020 0.068792
0.002584 0.935677 -0.077514
-0.002326 0.923620 0.013870
0.246981 -0.649389 0.010781
-0.163133 0.579758 -0.156078
0.361437 -0.652954 0.136650
-0.144801 -0.200298 -0.003583
-0.227695 -0.057109 0.068840
0.279381 -0.615177 -0.012193
-0.332704 0.204163 -0.000589
-0.159115 -0.799570 -0.192558
0.002432 -0.680865 0.165918
-0.227697 -0.036349 0.029820
0.061847 -0.174712 0.082004
-0.180946 -0.077147 0.034570
0.058744 0.697991 -0.026196
-0.088607 0.651385 -0.143607
0.088238 0.163667 0.049470
-0.022185 0.624800 -0.165430
0.111062 0.213757 -0.025157
-0.209968 0.068052 -0.038880
-0.273300 -0.033163 0.073539
0.225396 -0.755658 0.164540
0.156217 -0.215702 0.210553
-0.016334 0.822502 0.046338
-0.180555 0.876015 -0.102940
0.030898 -0.593454 -0.141693
-0.150758 -0.779804 0.100507
-0.066062 0.426885 -0.136014
0.191500 -0.296604 0.177052
0.136381 -0.772554 0.197259
-0.207025 0.016950 0.102787
-0.052970 0.187712 -0.102362
0.272368 0.410948 -0.001494
0.018531 0.223259 0.097375
-0.165638 0.830704 0.008651
-0.013350 -0.209620 -0.121895
0.248596 0.499987 -0.060799
0.250486 -0.534570 0.104707
-0.082016 -0.061623 0.097712
-0.126729 0.652238 -0.018848
-0.320904 0.271646 0.023165
0.179621 0.463273 -0.002125
-0.010109 0.053386 0.086810
-0.132979 -0.701296 -0.159492
-0.151085 0.467809 -0.153805
-0.128408 -0.783350 -0.166871
-0.055060 -0.583780 -0.049252
-0.228012 -0.050221 0.102154
-0.083991 0.794419 -0.130973
0.038641 0.269335 -0.084477
-0.141156 -0.521346 -0.066799
-0.074912 0.743707 -0.107602
-0.097937 -0.525271 -0.129263
-0.201921 -0.006729 0.030734
0.164446 0.602754 -0.006592
-0.046731 0.869314 0.057041
0.000781 0.922851 -0.046523
-0.137625 -0.770833 0.157862
-0.030174 0.867367 -0.076566
0.094929 0.647283 0.090109
0.010577 0.691712 0.028100
-0.189567 0.792301 -0.061006
-0.168973 -0.038526 0.072513
0.082346 0.712148 0.105731
0.021944 0.914820 -0.020268
-0.010314 -0.658842 0.104707
-0.005415 0.866705 0.001662
-0.192267 -0.048634 0.086052
-0.188415 0.938195 0.002647
-0.018328 -0.686234 -0.182795
0.274245 -0.669931 -0.082154
0.094177 0.028633 -0.035668
-0.034015 0.983338 -0.026969
-0.075531 0.325415 0.084471
-0.134461 -0.476319 -0.059282
-0.027096 0.280647 0.097618
-0.212190 0.445973 -0.033808
-0.229240 0.009631 0.057202
0.198353 -0.697143 -0.157889
0.063477 0.647685 0.064164
-0.115070 -0.286256 -0.134855
-0.139433 0.824461 -0.114741
0.020083 -0.562284 -0.046181
-0.047707 0.039043 -0.018964
0.237152 -0.553338 0.023621
-0.012883 0.807512 0.037417
0.370250 -0.688494 0.069276
0.376759 -0.767742 0.201349
-0.255645 0.070267 0.111442
0.108873 0.550970 -0.060014
0.341605 -0.698695 0.194180
0.138505 -0.104845 0.165781
0.059770 -0.136232 0.163434
-0.273240 0.285471 0.014126
-0.084620 -0.275482 0.048751
-0.318119 0.450942 -0.060190
0.029512 0.664233 0.110465
0.143645 -0.209397 0.094055
-0.162416 -0.785481 0.088014
0.116254 0.559487 -0.007411
0.263105 -0.657913 0.056769
-0.026439 0.721173 -0.106651
0.367288 -0.638942 0.093289
0.007124 0.893764 -0.061911
0.114670 0.560511 0.126037
0.103807 0.678984 0.119347
-0.198802 0.894184 -0.047517
-0.284164 0.071022 0.121927
-0.124778 0.881142 0.082153
-0.034852 -0.244657 -0.018908
-0.202632 0.841617 -0.020374
-0.040489 0.966855 -0.063395
0.211507 0.423100 -0.004532
0.043922 0.687959 0.130243
-0.237791 -0.000919 0.021864
-0.056954 0.062564 -0.089198
0.049103 0.719764 -0.088001
-0.089024 -0.675457 0.032259
0.366765 -0.702567 -0.001200
-0.048958 -0.687176 0.154024
-0.107180 -0.584746 -0.064408
0.010675 0.940278 0.011235
0.119686 0.690527 -0.111403
0.002151 -0.529159 -0.052140
-0.110133 0.917583 0.095268
-0.183725 -0.055485 0.064710
-0.252279 0.310539 -0.056497
0.012321 0.372235 0.080762
-0.309827 0.520439 -0.024879
-0.186519 0.170039 0.061415
-0.211216 0.451627 -0.133715
0.037287 0.650092 -0.001475
-0.267495 0.510385 -0.117716
-0.089973 -0.190230 -0.049781
-0.147107 0.961774 -0.087961
-0.189824 0.251937 -0.029095
0.271515 0.512513 -0.005242
-0.167084 -0.777829 0.190769
-0.190129 -0.069002 0.109358
-0.034653 0.388684 -0.135371
-0.044296 -0.613812 -0.001240
-0.184105 0.893846 0.033825
0.317721 -0.708994 -0.149560
-0.171006 0.477755 0.050516
-0.080579 -0.423024 -0.137281
0.110231 0.664603 0.170039
0.120496 0.085667 0.048828
0.353938 -0.772639 -0.143546
-0.178437 0.858105 0.020102
-0.069685 0.583774 0.034747
-0.170154 0.769347 -0.096117
-0.006748 0.464954 0.076660
0.364137 -0.669694 0.113778
0.252857 -0.702555 0.178154
-0.242086 -0.064307 0.085692
-0.012893 0.109049 0.074496
0.370330 -0.714314 -0.113178
-0.171726 -0.083988 0.051224
-0.049508 0.867880 -0.133583
-0.107995 -0.709796 -0.196766
-0.209536 -0.058971 0.115700
-0.039804 0.062999 0.047704
0.052728 0.663575 0.168440
-0.050308 0.977371 0.048707
0.108671 0.577727 -0.113038
-0.162770 0.763212 -0.037127
-0.236401 0.499134 -0.001402
-0.146973 -0.347861 -0.049219
-0.214543 0.048345 0.073514
-0.042017 0.848534 -0.099607
-0.047495 0.803656 -0.078257
-0.020027 -0.684120 0.140520
0.029746 0.715866 0.138298
-0.095652 0.406402 0.083614
-0.226030 0.590567 -0.001890
-0.137745 0.883801 -0.135243
-0.144925 0.059157 0.103030
-0.016513 0.926868 0.075171
0.079380 -0.111718 0.006624
-0.172163 0.186909 -0.094673
-0.010693 0.877487 0.047675
0.369960 -0.691447 0.160894
-0.224363 -0.062115 0.039564
-0.242541 0.166878 0.003091
-0.255161 0.610971 -0.107607
0.002658 0.003092 -0.048469
-0.093008 0.652244 -0.004257
0.089263 -0.659417 -0.054111
0.304433 -0.572910 0.060200
3 135 297 4
3 197 268 192
3 149 11 17
3 305 6 124
3 96 63 283
3 302 40 193
3 307 310 131
3 211 280 123
3 296 258 225
3 294 166 162
3 176 58 89
3 39 105 179
3 138 13 128
3 81 217 20
3 257 303 203
3 104 225 258
3 306 192 71
3 165 116 33
3 163 77 285
3 200 286 272
3 102 307 78
3 260 174 121
3 285 44 146
3 302 243 292
3 296 90 206
3 265 51 14
3 229 219 171
3 314 262 225
3 206 256 262
3 289 175 173
3 20 267 139
3 99 166 294
3 255 312 183
3 56 242 162
3 165 69 30
3 41 241 6
3 183 141 244
3 209 226 32
3 146 221 276
3 12 169 25
3 227 120 27
3 31 179 161
3 163 8 257
3 300 0 181
3 223 237 313
3 178 45 181
3 91 50 199
3 187 267 93
3 232 318 134
3 72 1 128
3 315 308 142
3 149 309 11
3 100 97 87
3 232 282 132
3 81 20 277
3 291 172 62
3 152 222 53
3 117 93 159
3 183 143 255
3 264 75 6
3 310 82 131
3 125 194 186
3 62 168 18
3 254 238 21
3 104 314 225
3 75 67 112
3 267 187 156
3 145 231 147
3 181 145 110
3 144 99 252
3 110 314 104
3 203 46 205
3 112 114 129
3 214 318 137
3 168 71 26
3 263 68 297
3 13 72 128
3 54 122 266
3 240 123 16
3 302 113 243
3 70 318 167
3 184 3 99
3 175 187 101
3 250 91 7
3 84 212 317
3 73 83 116
3 301 249 140
3 17 28 263
3 267 156 228
3 134 70 311
3 3 171 234
3 183 207 192
3 314 133 262
3 109 250 176
3 50 155 9
3 177 284 287
3 144 29 184
3 134 282 232
3 107 177 136
3 114 67 198
3 197 177 268
3 253 103 212
3 45 299 300
3 77 108 285
3 119 256 313
3 185 47 21
3 246 0 144
3 99 266 166
3 104 258 304
3 106 209 189
3 42 230 115
3 102 129 307
3 291 222 172
3 68 274 22
3 298 207 13
3 143 287 284
3 105 76 179
3 42 115 167
3 248 286 200
3 38 73 253
3 209 106 226
3 275 56 54
3 62 18 291
3 129 48 47
3 214 230 42
3 105 294 76
3 235 275 54
3 295 110 12
3 6 130 124
3 246 144 252
3 83 57 274
3 69 127 73
3 25 80 19
3 150 312 136
3 138 225 119
3 68 22 297
3 123 280 191
3 71 135 224
3 202 125 241
3 232 132 137
3 90 170 223
3 200 208 9
3 5 187 93
3 35 219 229
3 212 66 317
3 200 98 248
3 10 249 195
3 2 149 183
3 106 56 292
3 204 22 111
3 94 251 125
3 75 112 293
3 234 242 56
3 196 153 215
3 160 290 268
3 12 104 64
3 7 175 101
3 300 80 0
3 307 47 310
3 280 15 110
3 216 81 248
3 75 202 41
3 109 176 22
3 75 264 67
3 204 180 109
3 195 249 301
3 80 25 316
3 38 57 83
3 247 101 49
3 107 197 160
3 150 128 1
3 129 65 254
3 4 297 176
3 254 21 47
3 278 240 164
3 286 81 277
3 291 18 222
3 54 56 122
3 303 14 203
3 32 190 261
3 227 92 120
3 117 118 93
3 147 39 157
3 44 172 222
3 96 283 115
3 80 316 85
3 231 0 246
3 219 294 171
3 222 27 53
3 287 135 71
3 289 87 175
3 264 6 305
3 233 188 86
3 180 91 250
3 38 84 57
3 176 89 270
3 317 155 84
3 121 309 265
3 227 88 92
3 106 189 23
3 305 211 154
3 224 4 103
3 143 135 287
3 259 2 183
3 251 78 131
3 5 49 187
3 317 9 155
3 107 160 268
3 9 199 50
3 84 50 57
3 110 133 314
3 279 261 85
3 43 277 20
3 257 205 163
3 75 41 6
3 187 49 101
3 272 277 43
3 132 282 98
3 304 258 296
3 183 149 143
3 170 128 237
3 218 160 298
3 7 173 175
3 206 262 260
3 114 65 129
3 54 3 23
3 261 35 29
3 249 5 140
3 292 275 40
3 186 233 130
3 4 176 103
3 81 52 217
3 124 288 305
3 227 308 201
3 48 129 254
3 53 27 158
3 74 86 288
3 282 311 52
3 148 276 201
3 52 81 216
3 212 103 59
3 75 293 202
3 228 139 267
3 182 57 50
3 235 54 189
3 151 52 220
3 144 184 99
3 82 196 188
3 306 71 168
3 69 165 33
3 187 61 156
3 144 190 34
3 63 117 151
3 14 303 273
3 207 72 13
3 157 39 269
3 28 239 263
3 302 193 113
3 259 183 306
3 119 313 13
3 309 149 2
3 120 92 214
3 282 216 98
3 220 311 70
3 206 90 223
3 294 219 76
3 312 107 136
3 241 125 130
3 266 122 166
3 219 35 37
3 144 261 29
3 292 226 106
3 131 194 251
3 182 50 91
3 183 312 141
3 195 89 10
3 108 62 172
3 157 269 31
3 217 52 159
3 293 94 125
3 281 257 8
3 238 55 21
3 175 139 228
3 209 261 144
3 113 190 32
3 36 318 214
3 193 235 34
3 68 210 274
3 126 96 230
3 160 197 192
3 100 9 208
3 164 25 55
3 169 64 316
3 307 129 47
3 54 266 3
3 252 99 294
3 91 173 7
3 103 270 59
3 255 197 107
3 43 20 97
3 282 134 311
3 197 255 290
3 107 312 255
3 303 257 281
3 30 73 116
3 114 198 271
3 222 18 142
3 149 17 135
3 261 0 85
3 255 268 290
3 211 45 178
3 21 55 185
3 154 123 240
3 163 146 8
3 173 199 289
3 34 235 189
3 208 43 100
3 65 114 271
3 265 309 2
3 316 304 279
3 285 108 172
3 88 158 92
3 132 98 200
3 272 43 208
3 305 45 211
3 150 141 312
3 185 153 310
3 239 224 103
3 46 77 163
3 64 169 12
3 91 199 173
3 272 286 277
3 82 310 196
3 264 305 154
3 159 267 20
3 245 213 17
3 140 118 96
3 146 163 285
3 296 225 90
3 67 264 198
3 313 237 218
3 181 0 231
3 61 187 228
3 197 290 177
3 29 229 184
3 133 174 260
3 262 119 225
3 79 24 245
3 60 42 167
3 125 186 130
3 30 116 165
3 55 25 19
3 273 303 279
3 158 36 92
3 250 58 176
3 150 244 141
3 135 263 297
3 254 65 238
3 213 26 239
3 288 299 45
3 74 233 86
3 304 296 273
3 302 292 40
3 116 83 33
3 316 25 169
3 133 260 262
3 257 203 205
3 158 167 36
3 194 233 186
3 112 67 114
3 192 255 287
3 206 260 14
3 214 42 60
3 15 280 211
3 255 143 136
3 65 95 238
3 188 196 300
3 77 46 62
3 313 218 13
3 284 177 290
3 33 210 69
3 94 78 251
3 193 34 113
3 222 142 27
3 64 304 316
3 132 200 230
3 14 51 203
3 295 191 110
3 140 5 93
3 243 32 226
3 309 161 11
3 56 162 122
3 80 85 0
3 218 298 13
3 119 262 256
3 126 317 66
3 283 63 151
3 94 102 78
3 275 235 40
3 126 230 317
3 113 32 243
3 200 272 208
3 247 58 7
3 271 95 65
3 12 110 104
3 196 19 300
3 145 174 133
3 218 237 290
3 10 247 49
3 120 214 60
3 294 162 242
3 161 245 11
3 203 51 46
3 207 183 244
3 183 192 306
3 278 95 271
3 148 24 179
3 37 8 76
3 70 167 115
3 218 290 160
3 29 35 229
3 250 7 58
3 276 88 227
3 128 150 284
3 23 234 106
3 214 137 132
3 285 172 44
3 220 283 151
3 282 52 216
3 223 313 256
3 189 209 144
3 15 181 110
3 243 226 292
3 239 127 69
3 181 231 145
3 39 179 269
3 97 20 139
3 185 55 153
3 89 58 247
3 115 230 96
3 99 3 266
3 271 240 278
3 175 87 139
3 122 162 166
3 11 245 17
3 204 109 22
3 196 215 19
3 177 107 268
3 240 271 236
3 150 1 244
3 253 84 38
3 204 111 180
3 123 191 16
3 46 259 306
3 214 132 230
3 55 215 153
3 288 45 305
3 292 56 275
3 213 28 17
3 121 31 309
3 221 146 44
3 14 121 265
3 71 224 26
3 111 22 182
3 33 83 274
3 184 229 3
3 281 8 35
3 238 95 55
3 136 177 255
3 77 62 108
3 24 315 245
3 103 127 239
3 318 70 134
3 76 8 148
3 206 223 256
3 35 279 281
3 281 279 303
3 9 100 199
3 193 40 235
3 112 129 293
3 44 222 221
3 92 36 214
3 224 135 4
3 221 222 152
3 87 97 139
3 310 153 196
3 95 164 55
3 16 295 25
3 85 316 279
3 72 207 244
3 86 188 299
3 159 52 151
3 300 181 45
3 25 295 12
3 73 38 83
3 113 34 190
3 210 33 274
3 106 234 56
3 192 287 71
3 25 164 16
3 124 130 74
3 115 220 70
3 180 250 109
3 8 146 148
3 16 191 295
3 143 149 135
3 252 105 39
3 306 168 62
3 154 240 236
3 100 43 97
3 146 276 148
3 237 284 290
3 286 248 81
3 72 244 1
3 274 57 182
3 158 60 167
3 234 171 242
3 279 304 273
3 144 0 190
3 15 211 178
3 189 54 23
3 191 280 110
3 154 211 123
3 51 265 2
3 297 22 176
3 263 69 68
3 148 201 24
3 195 140 126
3 102 293 129
3 245 315 213
3 22 274 182
3 161 79 245
3 182 91 180
3 10 89 247
3 205 46 163
3 230 200 317
3 179 79 161
3 27 120 60
3 17 263 135
3 220 52 311
3 309 31 161
3 59 195 66
3 63 96 118
3 231 252 147
3 217 159 20
3 233 82 188
3 147 157 145
3 55 19 215
3 264 154 236
3 201 308 315
3 227 27 142
3 253 212 84
3 298 160 192
3 46 306 62
3 28 213 239
3 140 93 118
3 3 229 171
3 128 284 237
3 267 159 93
3 219 37 76
3 273 206 14
3 24 201 315
3 66 195 126
3 10 49 249
3 254 47 48
3 84 155 50
3 261 279 35
3 187 175 228
3 239 69 263
3 51 2 259
3 110 145 133
3 136 284 150
3 221 152 88
3 90 138 170
3 179 24 79
3 260 121 14
3 276 221 88
3 53 158 152
3 18 315 142
3 276 227 201
3 188 300 299
3 168 26 18
3 171 294 242
3 36 167 318
3 225 138 90
3 212 59 66
3 27 60 158
3 35 8 37
3 34 189 144
3 102 94 293
3 307 131 78
3 176 270 103
3 177 287 255
3 170 138 128
3 249 49 5
3 32 261 209
3 30 69 73
3 119 13 138
3 192 268 255
3 143 284 136
3 41 202 241
3 23 3 234
3 157 31 174
3 51 259 46
3 111 182 180
3 151 117 159
3 247 7 101
3 231 246 252
3 95 278 164
3 118 117 63
3 199 100 87
3 121 174 31
3 210 68 69
3 88 152 158
3 269 179 31
3 289 199 87
3 296 206 273
3 318 232 137
3 170 237 223
3 127 103 253
3 207 298 192
3 190 0 261
3 140 195 301
3 64 104 304
3 293 125 202
3 130 233 74
3 164 240 16
3 148 179 76
3 270 89 195
3 131 82 194
3 174 145 157
3 178 181 15
3 283 220 115
3 251 194 125
3 18 26 213
3 294 105 252
3 59 270 195
3 127 253 73
3 241 130 6
3 98 216 248
3 264 236 198
3 74 288 124
3 308 227 142
3 26 224 239
3 47 185 310
3 194 82 233
3 18 213 315
3 198 236 271
3 300 19 80
3 140 96 126
3 288 86 299
3 9 317 200
3 147 252 39
